\relax 
\providecommand\HyperFirstAtBeginDocument{\AtBeginDocument}
\HyperFirstAtBeginDocument{\ifx\hyper@anchor\@undefined
\global\let\oldcontentsline\contentsline
\gdef\contentsline#1#2#3#4{\oldcontentsline{#1}{#2}{#3}}
\global\let\oldnewlabel\newlabel
\gdef\newlabel#1#2{\newlabelxx{#1}#2}
\gdef\newlabelxx#1#2#3#4#5#6{\oldnewlabel{#1}{{#2}{#3}}}
\AtEndDocument{\ifx\hyper@anchor\@undefined
\let\contentsline\oldcontentsline
\let\newlabel\oldnewlabel
\fi}
\fi}
\global\let\hyper@last\relax 
\gdef\HyperFirstAtBeginDocument#1{#1}
\providecommand\HyField@AuxAddToFields[1]{}
\select@language{english}
\@writefile{toc}{\select@language{english}}
\@writefile{lof}{\select@language{english}}
\@writefile{lot}{\select@language{english}}
\citation{top500}
\@writefile{toc}{\contentsline {section}{\numberline {1}Introduction}{4}{section.1}}
\@writefile{toc}{\contentsline {paragraph}{}{4}{section*.3}}
\@writefile{toc}{\contentsline {section}{\numberline {2}State of the Art}{4}{section.2}}
\newlabel{Stateoftheart}{{2}{4}{State of the Art\relax }{section.2}{}}
\@writefile{toc}{\contentsline {subsection}{\numberline {2.1}\emph  {Task-flow} Paradigm}{4}{subsection.2.1}}
\@writefile{toc}{\contentsline {subsection}{\numberline {2.2}Runtime Systems and other Execution Supports}{5}{subsection.2.2}}
\@writefile{toc}{\contentsline {subsubsection}{\numberline {2.2.1}StarSs}{5}{subsubsection.2.2.1}}
\@writefile{toc}{\contentsline {subsubsection}{\numberline {2.2.2}Harmony}{5}{subsubsection.2.2.2}}
\@writefile{toc}{\contentsline {subsubsection}{\numberline {2.2.3}KAAPI}{5}{subsubsection.2.2.3}}
\citation{thesis_aug}
\citation{starpu_tech}
\citation{thesis_aug}
\@writefile{lof}{\contentsline {figure}{\numberline {1}{\ignorespaces  The MSI coherency protocol (MSI). The state of the data on each node is updated accordingly to the access mode. \newline  \emph  {Modified} when the local replicate is the only valid copy. \emph  {Shared} when the local replicate is valid but there exist other valid copy. \emph  {Invalid} when the local replicate is not up-to-date.\newline  The full arrows represent the local events and the dotted arrows events concerning the same data situated on other data banks. For each piece of data, StarPU keeps an array describing the state of its replicates on the different memory nodes. Each entry of the array indicates whether the local replicate data is \emph  {Modified}, \emph  {Shared} or \emph  {Invalid}. }}{6}{figure.1}}
\newlabel{MSI}{{1}{6}{The MSI coherency protocol (MSI). The state of the data on each node is updated accordingly to the access mode. \newline \emph {Modified} when the local replicate is the only valid copy. \emph {Shared} when the local replicate is valid but there exist other valid copy. \emph {Invalid} when the local replicate is not up-to-date.\newline The full arrows represent the local events and the dotted arrows events concerning the same data situated on other data banks. For each piece of data, StarPU keeps an array describing the state of its replicates on the different memory nodes. Each entry of the array indicates whether the local replicate data is \emph {Modified}, \emph {Shared} or \emph {Invalid}}{figure.1}{}}
\@writefile{toc}{\contentsline {subsubsection}{\numberline {2.2.4}StarPU}{6}{subsubsection.2.2.4}}
\citation{dague_tech}
\@writefile{lof}{\contentsline {figure}{\numberline {2}{\ignorespaces  The StarPU codelet data structure. The \emph  {cpu$\_$funcs} and \emph  {cuda$\_$funcs} gathers the two different implementations of the GEMM computational kernel (the \texttt  {C} implementation for CPU and the cuda implementation for GPU). The \emph  {nbuffers} field specifies how many pieces of data will be accessed and the field \emph  {mode} how they will be accessed (Read, Write or Read and Write). Finally, the \emph  {model} field indicates the name of the model of the task in order to evaluate the task's duration. }}{7}{figure.2}}
\newlabel{codelet}{{2}{7}{The StarPU codelet data structure. The \emph {cpu$\_$funcs} and \emph {cuda$\_$funcs} gathers the two different implementations of the GEMM computational kernel (the \texttt {C} implementation for CPU and the cuda implementation for GPU). The \emph {nbuffers} field specifies how many pieces of data will be accessed and the field \emph {mode} how they will be accessed (Read, Write or Read and Write). Finally, the \emph {model} field indicates the name of the model of the task in order to evaluate the task's duration}{figure.2}{}}
\@writefile{toc}{\contentsline {subsubsection}{\numberline {2.2.5}DAGuE}{7}{subsubsection.2.2.5}}
\citation{hybridization}
\@writefile{toc}{\contentsline {subsubsection}{\numberline {2.2.6}Summary}{8}{subsubsection.2.2.6}}
\@writefile{toc}{\contentsline {subsection}{\numberline {2.3}Linear Algebra}{8}{subsection.2.3}}
\@writefile{toc}{\contentsline {subsubsection}{\numberline {2.3.1}LAPACK and ScaLAPACK}{8}{subsubsection.2.3.1}}
\@writefile{toc}{\contentsline {subsubsection}{\numberline {2.3.2}PLASMA and Dplasma}{8}{subsubsection.2.3.2}}
\@writefile{toc}{\contentsline {subsubsection}{\numberline {2.3.3}MAGMA and MORSE}{8}{subsubsection.2.3.3}}
\citation{dague_gpu}
\citation{dague_tech}
\citation{starpu_chol}
\@writefile{lof}{\contentsline {figure}{\numberline {3}{\ignorespaces Cholesky Factorization. The sequential version of the algorithm, using the POTRF, TRSM, GEMM and SYRK subroutines resulting from linear algebra packages. }}{9}{figure.3}}
\newlabel{Cholesky_sequential}{{3}{9}{Cholesky Factorization. The sequential version of the algorithm, using the POTRF, TRSM, GEMM and SYRK subroutines resulting from linear algebra packages}{figure.3}{}}
\@writefile{lof}{\contentsline {figure}{\numberline {4}{\ignorespaces Dependency tasks graph of the tile cholesky factorization algorithm (5x5 tiles).}}{9}{figure.4}}
\newlabel{Cholesky_TG}{{4}{9}{Dependency tasks graph of the tile cholesky factorization algorithm (5x5 tiles)}{figure.4}{}}
\@writefile{toc}{\contentsline {subsection}{\numberline {2.4}The Cholesky factorization}{9}{subsection.2.4}}
\@writefile{lof}{\contentsline {figure}{\numberline {5}{\ignorespaces The JDF code for a Cholesky Factorization. The four kernels, POTRF, TRSM, SYRK and GEMM, are applied to a set of parameters and pieces of data. The execution space specifies the different values for each parameter of the kernel and so, the number of time the task will be executed. Here the execution space of POTRF depends on k which varies between 0 and SIZE-1. We have, thus, SIZE POTRF tasks. Then, we define the pieces of the matrix that will be needed by a task. In the POTRF task, T is defined by the tile A(0,0) when k is set to 0 or corresponds to the T's value of the task SYRK(k-1,k). After the body execution of the kernel, T flows out towards the memory (tile A(k,k)) and to the next tasks (TRSM(k, k+1) TRSM(k, k+2) ... TRSM(k,SIZE-1)). Here the body only consists of a call to a LAPACK routine. }}{10}{figure.5}}
\newlabel{Cholesky_JDF}{{5}{10}{The JDF code for a Cholesky Factorization. The four kernels, POTRF, TRSM, SYRK and GEMM, are applied to a set of parameters and pieces of data. The execution space specifies the different values for each parameter of the kernel and so, the number of time the task will be executed. Here the execution space of POTRF depends on k which varies between 0 and SIZE-1. We have, thus, SIZE POTRF tasks. Then, we define the pieces of the matrix that will be needed by a task. In the POTRF task, T is defined by the tile A(0,0) when k is set to 0 or corresponds to the T's value of the task SYRK(k-1,k). After the body execution of the kernel, T flows out towards the memory (tile A(k,k)) and to the next tasks (TRSM(k, k+1) TRSM(k, k+2) ... TRSM(k,SIZE-1)). Here the body only consists of a call to a LAPACK routine}{figure.5}{}}
\@writefile{toc}{\contentsline {section}{\numberline {3}Conceptual Contribution}{11}{section.3}}
\newlabel{Motivation}{{3}{11}{Conceptual Contribution\relax }{section.3}{}}
\@writefile{toc}{\contentsline {section}{\numberline {4}Technical Contribution}{11}{section.4}}
\newlabel{Contribution}{{4}{11}{Technical Contribution\relax }{section.4}{}}
\@writefile{toc}{\contentsline {paragraph}{}{11}{section*.4}}
\citation{dague_gpu}
\newlabel{DAGuECompile-a}{{6(a)}{12}{Subfigure 6(a)\relax }{subfigure.6.1}{}}
\newlabel{sub@DAGuECompile-a}{{(a)}{12}{Subfigure 6(a)\relax }{subfigure.6.1}{}}
\newlabel{DAGuECompile-b}{{6(b)}{12}{Subfigure 6(b)\relax }{subfigure.6.2}{}}
\newlabel{sub@DAGuECompile-b}{{(b)}{12}{Subfigure 6(b)\relax }{subfigure.6.2}{}}
\@writefile{lof}{\contentsline {figure}{\numberline {6}{\ignorespaces  Comparison between the DAGuE's compilation process and the compilation process of our approach. First the translation from the sequential code to the JDF input and then, the translation from the JDF format to a \texttt  {C}-code. We can see that our approach is targeting heterogeneous machines by relying on the StarPU runtime while conserving the JDF analysis and DAG representation of DAGuE. }}{12}{figure.6}}
\@writefile{lof}{\contentsline {subfigure}{\numberline{(a)}{\ignorespaces {Original DAGuE's Compilation process}}}{12}{figure.6}}
\@writefile{lof}{\contentsline {subfigure}{\numberline{(b)}{\ignorespaces {Our Compilation process combining the DAGuE and StarPU approaches }}}{12}{figure.6}}
\newlabel{DAGuECompile}{{6}{12}{Comparison between the DAGuE's compilation process and the compilation process of our approach. First the translation from the sequential code to the JDF input and then, the translation from the JDF format to a \texttt {C}-code. We can see that our approach is targeting heterogeneous machines by relying on the StarPU runtime while conserving the JDF analysis and DAG representation of DAGuE}{figure.6}{}}
\@writefile{toc}{\contentsline {subsection}{\numberline {4.1}Code generation}{12}{subsection.4.1}}
\@writefile{toc}{\contentsline {paragraph}{}{12}{figure.7}}
\@writefile{toc}{\contentsline {subsubsection}{\numberline {4.1.1}Parsing}{12}{subsubsection.4.1.1}}
\@writefile{lof}{\contentsline {figure}{\numberline {7}{\ignorespaces Layer's role. Combining the two approaches thanks to DAGuE and StarPU runtime systems}}{13}{figure.7}}
\newlabel{DAGuEoverStarPU}{{7}{13}{Layer's role. Combining the two approaches thanks to DAGuE and StarPU runtime systems\relax }{figure.7}{}}
\@writefile{lof}{\contentsline {figure}{\numberline {8}{\ignorespaces  GPU-enabled JDF implementations for the GEMM kernel. It is the extension of the GEMM kernel Figure \ref  {Cholesky_JDF}, for GPU. On the left, the DAGuE code of the DPLASMA library. On the right, the code proposed by our approach. The DAGuE code for GPU does not provide efficient data mechanisms like data prefetch, overlap or MSI protocol while the DAGuE+StarPU code take advantage of these mechanisms. Moreover, the DAGuE code requires the user to implement the \texttt  {gpu\_mark\_data\_usage} function because it does not ensure the data coherency. }}{13}{figure.8}}
\newlabel{JDFCompare}{{8}{13}{GPU-enabled JDF implementations for the GEMM kernel. It is the extension of the GEMM kernel Figure \ref {Cholesky_JDF}, for GPU. On the left, the DAGuE code of the DPLASMA library. On the right, the code proposed by our approach. The DAGuE code for GPU does not provide efficient data mechanisms like data prefetch, overlap or MSI protocol while the DAGuE+StarPU code take advantage of these mechanisms. Moreover, the DAGuE code requires the user to implement the \texttt {gpu\_mark\_data\_usage} function because it does not ensure the data coherency}{figure.8}{}}
\citation{thesis_aug}
\citation{heft}
\@writefile{toc}{\contentsline {subsubsection}{\numberline {4.1.2}Data management}{14}{subsubsection.4.1.2}}
\@writefile{toc}{\contentsline {subsubsection}{\numberline {4.1.3}Scheduling}{14}{subsubsection.4.1.3}}
\@writefile{toc}{\contentsline {subsection}{\numberline {4.2}Summary}{15}{subsection.4.2}}
\@writefile{toc}{\contentsline {section}{\numberline {5}Evaluation}{15}{section.5}}
\newlabel{Evaluation}{{5}{15}{Evaluation\relax }{section.5}{}}
\@writefile{toc}{\contentsline {subsection}{\numberline {5.1}Methodology}{15}{subsection.5.1}}
\@writefile{toc}{\contentsline {subsection}{\numberline {5.2}Homogeneous platform}{15}{subsection.5.2}}
\citation{dague_gpu}
\@writefile{lof}{\contentsline {figure}{\numberline {9}{\ignorespaces  The resulting GFlop/s vs the matrix order for a tile Cholesky Factorization on 8 cores, with a tile size of 960. The DAGuE+StarPU curve is the result of our approach, the DPLASMA curve is the result of DPLASMA package version and the MORSE curve the result of the MORSE package version. }}{16}{figure.9}}
\newlabel{dancer}{{9}{16}{The resulting GFlop/s vs the matrix order for a tile Cholesky Factorization on 8 cores, with a tile size of 960. The DAGuE+StarPU curve is the result of our approach, the DPLASMA curve is the result of DPLASMA package version and the MORSE curve the result of the MORSE package version}{figure.9}{}}
\@writefile{toc}{\contentsline {subsection}{\numberline {5.3}Heterogeneous platform}{16}{subsection.5.3}}
\@writefile{toc}{\contentsline {subsubsection}{\numberline {5.3.1}One GPU}{16}{subsubsection.5.3.1}}
\@writefile{toc}{\contentsline {subsubsection}{\numberline {5.3.2}Two GPUs}{16}{subsubsection.5.3.2}}
\@writefile{lof}{\contentsline {figure}{\numberline {10}{\ignorespaces  The resulting GFlop/s vs the matrix order for a tile Cholesky Factorization on 8 cores + 1GPU, with a tile size of 960. The DAGuE+StarPU curve is the result of my contribution, the DPLASMA curve is the result of DPLASMA package version and the MORSE curve the result of the MORSE package version. }}{17}{figure.10}}
\newlabel{1GPU}{{10}{17}{The resulting GFlop/s vs the matrix order for a tile Cholesky Factorization on 8 cores + 1GPU, with a tile size of 960. The DAGuE+StarPU curve is the result of my contribution, the DPLASMA curve is the result of DPLASMA package version and the MORSE curve the result of the MORSE package version}{figure.10}{}}
\@writefile{toc}{\contentsline {subsection}{\numberline {5.4}Summary}{17}{subsection.5.4}}
\@writefile{toc}{\contentsline {section}{\numberline {6}Conclusion and Future Challenges}{17}{section.6}}
\newlabel{Conclusion}{{6}{17}{Conclusion and Future Challenges\relax }{section.6}{}}
\@writefile{toc}{\contentsline {subsection}{\numberline {6.1}Conclusion}{17}{subsection.6.1}}
\bibstyle{plain}
\bibdata{/home/Napech/stage_runtime/writings/rapport_biblio.bib}
\bibcite{top500}{1}
\@writefile{lof}{\contentsline {figure}{\numberline {11}{\ignorespaces  The resulting GFlop/s vs the matrix order for a tile Cholesky Factorization on 8 cores + 2GPUs, with a tile size of 960. The DAGuE+StarPU curve is the result of my contribution, the DPLASMA curve is the result of DPLASMA package version and the MORSE curve the result of the MORSE package version. }}{18}{figure.11}}
\newlabel{2GPU}{{11}{18}{The resulting GFlop/s vs the matrix order for a tile Cholesky Factorization on 8 cores + 2GPUs, with a tile size of 960. The DAGuE+StarPU curve is the result of my contribution, the DPLASMA curve is the result of DPLASMA package version and the MORSE curve the result of the MORSE package version}{figure.11}{}}
\@writefile{toc}{\contentsline {subsection}{\numberline {6.2}Future Challenges}{18}{subsection.6.2}}
\@writefile{toc}{\contentsline {paragraph}{Short-term}{18}{section*.6}}
\@writefile{toc}{\contentsline {paragraph}{Mid-term}{18}{section*.7}}
\@writefile{toc}{\contentsline {paragraph}{Long-term}{18}{section*.8}}
\bibcite{hybridization}{2}
\bibcite{thesis_aug}{3}
\bibcite{starpu_tech}{4}
\bibcite{starpu_chol}{5}
\bibcite{dague_gpu}{6}
\bibcite{dague_tech}{7}
\bibcite{heft}{8}
\@writefile{toc}{\contentsline {section}{\numberline {7}Annexe}{19}{section.7}}
