#FIG 3.2  Produced by xfig version 3.2.5b
Landscape
Center
Metric
A4      
100.00
Single
-2
1200 2
4 0 0 50 -1 0 12 0.0000 4 150 720 1800 450 DAGuE\001
4 0 0 50 -1 0 12 0.0000 4 195 525 1800 1350 Layer\001
4 0 0 50 -1 0 12 0.0000 4 150 630 1800 2250 StarPU\001
4 0 0 50 -1 0 12 0.0000 4 195 3540 675 585 Execution order            Data Management\001
4 0 0 50 -1 0 12 0.0000 4 195 3510 675 2385 Dynamic scheduler     Data Management\001
